[
    "3evils_api_key",
    "acm_api_key",
    "ant_api_key",
    "ath_api_key",
    "bhd_api_key",
    "bhdtv_api_key",
    "blu_api_key",
    "dt_api_key",
    "gpw_api_key",
    "lst_api_key",
    "nxt_api_key",
    "nbl_api_key",
    "ntelogo_api_key",
    "ptp_api_key",
    "ptp_api_user",
    "r4e_api_key",
    "rf_api_key",
    "rtx_api_key",
    "spd_api_key",
    "stc_api_key",
    "stt_api_key",
    "szn_api_key",
    "tdb_api_key",
    "tdc_api_key",
    "telly_api_key",
    "tmdb_api_key",
    "tsp_api_key"
]
