{
    "name": "Swarmazon",
    "url": "https://swarmazon.club",
    "upload_form": "https://swarmazon.club/api/upload.php?api_key={api_key}",
    "torrents_search": "https://swarmazon.club/api/search.php?api_key={api_key}",
    "source": "Swarmazon",
    "platform": "Swarmazon",
    "bbcode_line_break": "\n",
    "title_separator": " ",
    "screenshot_type": "bbcode_images",

    "description_components": {
        "code_code": "<code></code>"
    },

    "technical_jargons": {
        "authentication_mode": "API_KEY",
        "response_type": "JSON",
        "payload_type": "MULTI-PART"
    },
    
    "translation": {
        "dot_torrent": "torrent",
        "torrent_title": "name",
        "description": "description",
        "mediainfo": "media_info",
        "bdinfo": "media_info",
        "type": "category",
        "source": "source",
        "hybrid_type_1": "type_id",
        "hybrid_type_2": "category_id",
        "resolution": "resolution_id",
        "tmdb": "tmdb",
        "imdb_with_tt": "media_ref",
        "anon": "anonymous",
        "live": "live",
        "sd": "sd",
        "tvdb": "tvdb",
        "mal": "mal",
        "igdb": "igdb",
        "optimized": "stream",
        "nfo_file": "nfo",
        "season_number": "season_number",
        "episode_number": "episode_number",
        "internal": "internal",
        "featured": "featured",
        "doubleup": "doubleup",
        "sticky": "sticky",
        "freeleech": "free"
    },
    "hybrid_mappings": {
        "category_id":{
            "required": true,
            "prerequisite": [
                "category"
            ],
            "mapping":{
                "7":{
                    "mal": {
                        "data_source": "torrent",
                        "not": true,
                        "values": [
                            "0"
                        ]
                    }
                },
                "1":{
                    "category": {
                        "data_source": "tracker",
                        "values": [
                            "1"
                        ]
                    }
                },
                "2":{
                    "category": {
                        "data_source": "tracker",
                        "values": [
                            "2"
                        ]
                    }
                }
            }
        },
        "type_id": {
            "required": true,
            "prerequisite": [
                "category",
                "source"
            ],
            "mapping": {
                "57": {
                    "mal": {
                        "data_source": "torrent",
                        "not": true,
                        "values": [
                            "0"
                        ]
                    }
                },
                "1": {
                    "category": {
                        "data_source": "tracker",
                        "values": [
                            "1"
                        ]
                    },
                    "source": {
                        "data_source": "tracker",
                        "values": [
                            "4",
                            "5"
                        ]
                    }
                },
                "3": {
                    "category": {
                        "data_source": "tracker",
                        "values": [
                            "1"
                        ]
                    },
                    "source": {
                        "data_source": "tracker",
                        "values": [
                            "1",
                            "3",
                            "12"
                        ]
                    }
                },
                "6": {
                    "category": {
                        "data_source": "tracker",
                        "values": [
                            "2"
                        ]
                    },
                    "episode_number": {
                        "data_source": "torrent",
                        "values": [
                            "0"
                        ]
                    }
                },
                "5": {
                    "category": {
                        "data_source": "tracker",
                        "values": [
                            "2"
                        ]
                    }
                }
            },
            "__comments__": {
                "1": "Movies: WEB-DL/WEBRip",
                "3": "Movies: FullDisk, Remux, Encode",
                "5": "TV: Episode (anything tv that fails check for 6)",
                "6": "TV: Season (episode number is 0)",
                "47": "Anime: Mina",
                "category": {
                    "1": "movie",
                    "2": "episode"
                }
            }
        }
    },
    "Required": {
        "torrent": "file",
        "name": "string",
        "description": "string",
        "anonymous": "string",
        "sd": "string",
        "stream": "string",
        "tvdb": "string",
        "type_id":"hybrid_type",
        "category_id":"hybrid_type",
        "tmdb": "string",
        "media_ref": "string",
        "mal": "string",
        "igdb": "string",
        "internal": "string",
        "free": "string",
        "featured": "string",
        "doubleup": "string",
        "sticky": "string",
        "category": {
            "1": "movie",
            "2": "episode"
        },
        "source": {
            "1": {
                "disc": 1,
                "bluray_disc": 2,
                "dvd_disc": 2
            },
            "3": {
                "remux": 1,
                "bluray_remux": 2,
                "dvd_remux": 2
            },
            "12": {
                "bluray_encode": 1
            },
            "4": {
                "webdl": 1
            },
            "5": {
                "webrip": 1
            },
            "6": {
                "hdtv": 1
            }
        },
        "resolution_id": {
            "11": {
                "4360p": 1
            },
            "1": {
                "2160p": 1
            },
            "2": {
                "1080p": 1
            },
            "3": {
                "1080i": 1
            },
            "5": {
                "720p": 1
            },
            "6": {
                "576p": 1
            },
            "7": {
                "576i": 1
            },
            "8": {
                "480p": 1
            },
            "9": {
                "480i": 1
            },
            "10": {
                "other": 1
            }
        }
    },
    "Optional": {
        "nfo_file": "file",
        "season_number": "string",
        "episode_number": "string",
        "media_info": "string"
    },
    "Default": {},
    "dupes": {
        "technical_jargons": {
            "authentication_mode": "API_KEY",
            "payload_type": "MULTI-PART",
            "request_method": "GET",
            "response_type": "JSON"
        },
        "url_format": "{search_url}&media_ref={imdb}",
        "strip_text": false,
        "parse_json": {
            "is_needed": true,
            "top_lvl": "data"
        }
    },
    "torrent_title_format": {
        "episode": {
            "bluray_disc": "{title} {year} {s00e00} {screen_size} {region} {source} {dv} {hdr} {video_codec} {audio_codec} {audio_channels} {atmos} {release_group}",
            "bluray_remux": "{title} {year} {s00e00} {repack} {screen_size} {uhd} {hybrid} {source} {remux} {dv} {hdr} {video_codec} {audio_codec} {audio_channels} {atmos} {release_group}",
            "bluray_encode": "{title} {year} {s00e00} {repack} {screen_size} {uhd} {hybrid} {source} {audio_codec} {audio_channels} {atmos} {dv} {hdr} {video_codec} {release_group}",
            "web": "{title} {year} {s00e00} {repack} {screen_size} {web_source} {web_type} {audio_codec} {audio_channels} {atmos} {dv} {hdr} {video_codec} {release_group}",
            "hdtv": "{title} {year} {s00e00} {repack} {screen_size} {hybrid} {source} {audio_codec} {audio_channels} {video_codec} {release_group}",
            "dvd": "{title} {year} {s00e00} {edition} {repack} {screen_size} {region} {hybrid} {source} {video_codec} {remux} {audio_codec} {audio_channels} {atmos} {release_group}"
        },
        "movie": {
            "bluray_disc": "{title} {year} {edition} {repack} {screen_size} {region} {source} {dv} {hdr} {video_codec} {audio_codec} {audio_channels} {atmos} {release_group}",
            "bluray_remux": "{title} {year} {edition} {repack} {screen_size} {uhd} {hybrid} {source} {remux} {dv} {hdr} {video_codec} {audio_codec} {audio_channels} {atmos} {release_group}",
            "bluray_encode": "{title} {year} {edition} {repack} {screen_size} {uhd} {hybrid} {source} {audio_codec} {audio_channels} {atmos} {dv} {hdr} {video_codec} {release_group}",
            "web": "{title} {year} {edition} {repack} {screen_size} {hybrid} {web_source} {web_type} {audio_codec} {audio_channels} {atmos} {dv} {hdr} {video_codec} {release_group}",
            "hdtv": "{title} {year} {edition} {repack} {screen_size} {hybrid} {source} {audio_codec} {audio_channels} {atmos} {video_codec} {release_group}",
            "dvd": "{title} {year} {edition} {repack} {screen_size} {region} {hybrid} {source} {video_codec} {remux} {audio_codec} {audio_channels} {atmos} {release_group}"
        }
    },
    "banned_groups": [
        "AROMA",
        "aXXo",
        "BRrip",
        "CM8",
        "CrEwSaDe",
        "DNL",
        "FaNGDiNG0",
        "FRDS",
        "HD2DVD",
        "HDTime",
        "iPlanet",
        "KiNGDOM",
        "Leffe",
        "MeGusta",
        "mHD",
        "mSD",
        "nHD",
        "nSD",
        "NhaNc3",
        "PRODJi",
        "RDN",
        "SANTi",
        "STUTTERSHIT",
        "RARBG",
        "ViSION",
        "WAF",
        "x0r",
        "YIFY",
        "LycanHD",
        "FGT"
    ]
}